module bitbucket.org/bigwhite/modules-major-subdir-test

go 1.12

require (
	bitbucket.org/bigwhite/modules-major-subdir v0.0.0-20190603053114-50b15f581aba // indirect
	bitbucket.org/bigwhite/modules-major-subdir/v2 v2.0.0-20190603063223-4be5d54167e9 // indirect
)
